# Everything needed in production

# Flask
Flask==0.12.2
MarkupSafe==1.0
Werkzeug==0.12.2
Jinja2==2.9.6
itsdangerous==0.24
click>=5.0

# Database
Flask-SQLAlchemy==2.2
psycopg2==2.7.3
SQLAlchemy==1.1.11
MySQL-python==1.2.5

# Migrations
Flask-Migrate==2.1.0

# Forms
Flask-WTF==0.14.2
WTForms==2.1

# Deployment
gunicorn>=19.1.1

# Webpack
flask-webpack==0.1.0

# Auth
Flask-Login==0.4.0
Flask-Bcrypt==0.7.1

# Caching
Flask-Caching>=1.0.0

# Debug toolbar
Flask-DebugToolbar==0.10.1
celery
flask-mail==0.9.1
flask-redis
flask-restful
flask-admin
